{
  "type": "service_account",
  "project_id": "doloksanggul",
  "private_key_id": "157f782ed3169d415af11a2397e9f8777f5664e1",
  "private_key": "-----BEGIN PRIVATE KEY-----\nMIIEvgIBADANBgkqhkiG9w0BAQEFAASCBKgwggSkAgEAAoIBAQC6qHEWMEK2ZgBf\nFvkx5v59lHfah+yigl4Mguzxev7bRXTkEk0XSh83fAukbTJKOuTdxOwtz5EtFjzq\nDoNJOU7gi2Wh7HFKzxjL54pPKWwN7Q7IUCtgrmzSXv8KpODczUV7teztps+ziwCJ\n049M44cnM/N63FiwhdmJqA0woQVfk62ivQ+MtkSl1iOJ/smVG0jeBKvWuGM7ziYh\nAJMQbvzdCMPvxhq+aqw3j5aNlhtTu25P9Llr3ddj9aj4ZuKPR7yigwe8dO62gYeP\nbVFPVb0aqobXNLfgPqhk75rvS0BWx2furApDdCKthZPZfJceMhu1ZEB8BPOglg63\nUhQv5i5fAgMBAAECggEATX02DVcVqvEngFJiO2RBDFNBenhpNYHXl2wW/5znBpKM\nF069sEh2MyuNDcLDWOugLazdu5rrEwOjYCuMNy7SXweftpwY4EyfZ68EzR5OHG3o\ncCJQD7/5r0/+oyWVsDSLfvMkm/hfS5MOMymf2PSwHAdGMiAdtZKrn6kjaKfAOk+3\nxcrLSY4Nf7b8qm58C7W7ADWHBMKiTcj+h/ki0N3ABOKE01UedLvN+DL58gC5/h8H\nNqlobTuf0LE6cBHYQGZdmTBpJ1t4fqKx6uHr07TnFeEWmcRYHUqXxD60aMT6md2l\ni0MKsKKtsVWtLZ3ksMSKDHqU5f+HeYs/lnlGeO0MqQKBgQDm3gcC+hftGWfxrdOP\nfndCAI0KeCNTGqoaTEP+DogFugkk1Yvq46hp7uajTUepHn28rWwmFvklorGkgWBG\nRqVzwETxTE/scJb6t/n78CGrn85SkW0U3lPVnGnLhW/aZTUqlQe6XM7+MJYtwVA2\nG4V5HA7qCpbi/HB+UmpbKI8E6wKBgQDO+lude5TM53FEnkqmTa//i5KkdmG8A/DY\n1SnHi4SXfoI8PWjLHC32B81HP6Q2W0hjn/y0bXq+pIxHrE7rE0SKGD4fP1UZ9v+O\nV3dVzud80uIIkUpTANaEeInxtMLa7Auuo7dRxsWtTLyteI/e1dsBkTnZdA0Wfj01\nXuwPnI7vXQKBgQCqXlCYTszXSHdfbyJ/cxk42MU8Y5nV2wiKbZuDYV/ZsgbLatdd\nGHGQ8x66he4LDJhHY0c6+JsVvfEP7/WHBt1UBSAbXXBhkFiqXpgY5oVCbKTKY802\nqDb/nPSpnygC58sLSH0ydwi9pkc9Lroto7OkwyLybawZh6bQYatg6BZazwKBgFf4\nox3hW9JngIYIvXPHy0lTOmW6hznRdvnCSDqu+xEkzRfrhfHmLUbH9CEXVKVh0Pe/\nFTpe2e/TomgIPZa+nsAPI8BGO9aIXABU/ryy70Lnovi/QBbdYU/2p7LbAILqFuEI\nZq9US8qntf4JIyU0Qhx9bFgXckSgLUXU7YKJKVtlAoGBAMbHR//1qJSRt89BRKHs\ngiSPUZsxW6vVcY03QEK0ibJtFJkrCag3TJ2JcR3ACu6hI5nzJTbP/p2dJRvgPj5I\n1HIqwFus5l3u4M1+bZ0iMvhEbcJAjTCFeR6w1wlHy28EW2b/a9KXcl7u++UmMUJ+\nPCQzcouJNmdU9xieeXLI28Gs\n-----END PRIVATE KEY-----\n",
  "client_email": "dolok-728@doloksanggul.iam.gserviceaccount.com",
  "client_id": "113032010842342555638",
  "auth_uri": "https://accounts.google.com/o/oauth2/auth",
  "token_uri": "https://oauth2.googleapis.com/token",
  "auth_provider_x509_cert_url": "https://www.googleapis.com/oauth2/v1/certs",
  "client_x509_cert_url": "https://www.googleapis.com/robot/v1/metadata/x509/dolok-728%40doloksanggul.iam.gserviceaccount.com"
}
